Exploratorio de datos de casos positivos de covid-19 en el Atlantico
…
## [1] "POSIXct" "POSIXt"

Revision de NA

resumen_na <- df %>%
  summarise(across(everything(), ~ sum(is.na(.)))) %>%
  pivot_longer(everything(),
               names_to = "variable",
               values_to = "total_na") %>%
  arrange(desc(total_na))

resumen_na

## # A tibble: 25 × 2
##    variable                    total_na
##    <chr>                          <int>
##  1 codigo_iso_del_pais           418987
##  2 nombre_del_pais               418987
##  3 nombre_del_grupo_etnico       412797
##  4 dias_hasta_fallecimiento      405931
##  5 fecha_de_muerte               405922
##  6 dias_recuperacion              15653
##  7 tipo_de_recuperacion           12747
##  8 fecha_de_recuperacion          12744
##  9 fecha_de_inicio_de_sintomas     2916
## 10 fecha_de_diagnostico            1144
## # ℹ 15 more rows

resumen_na <- df %>%
  summarise(across(everything(), ~ sum(is.na(.)))) %>%
  pivot_longer(everything(),
               names_to = "variable",
               values_to = "total_na") %>%
  mutate(
    porcentaje_na = round(100 * total_na / nrow(df), 2)
  ) %>%
  arrange(desc(porcentaje_na))

resumen_na

## # A tibble: 25 × 3
##    variable                    total_na porcentaje_na
##    <chr>                          <int>         <dbl>
##  1 codigo_iso_del_pais           418987        100.  
##  2 nombre_del_pais               418987        100.  
##  3 nombre_del_grupo_etnico       412797         98.5 
##  4 dias_hasta_fallecimiento      405931         96.9 
##  5 fecha_de_muerte               405922         96.9 
##  6 dias_recuperacion              15653          3.74
##  7 fecha_de_recuperacion          12744          3.04
##  8 tipo_de_recuperacion           12747          3.04
##  9 fecha_de_inicio_de_sintomas     2916          0.7 
## 10 fecha_de_diagnostico            1144          0.27
## # ℹ 15 more rows
…
colnames(tabla_casos)[-1] <- c(
  "Enero","Febrero","Marzo","Abril","Mayo","Junio",
  "Julio","Agosto","Septiembre","Octubre","Noviembre","Diciembre"
)

tabla_casos

## # A tibble: 36 × 13
##      año Enero Febrero Marzo Abril  Mayo Junio Julio Agosto Septiembre Octubre
##    <dbl> <int>   <int> <int> <int> <int> <int> <int>  <int>      <int>   <int>
##  1     1  1468     737   472  1731  1031  1353  2024    554        234     377
##  2     2  1866     609   630  1552   863  1147  1829    596        255     473
##  3     3  2145     530   673  2170  1411  1348  1694    855        439     344
##  4     4  3307     474   609  1493  2068  1223  1815    648        334     423
##  5     5  3186     401   527  2571  1192  1447  1468    595        237     472
##  6     6  2886     355   469  2989  1888  1165  1942    859        308     328
##  7     7  3401     325   826  3994  1532  1115  1658    367        335     362
##  8     8  3344     456   867  3178  1209  2005  1931    439        320     421
##  9     9  2768     472   950  3337   870  1520  1519    403        335     403
## 10    10  2390     397  1010  2936  1748  1792  1453    521        337     351
## # ℹ 26 more rows
## # ℹ 2 more variables: Noviembre <int>, Diciembre <int>
…
